{
    "id": 130039,
    "code": "BnLPd3unvrI",
    "caption": "Home is where the heart belongs, we have great  and  for your comfort.",
    "url": "https:\/\/www.instagram.com\/p\/BnLPd3unvrI",
    "thumb": "https:\/\/instagram.fhel6-1.fna.fbcdn.net\/vp\/55a1f98785dfba77919d39236491011c\/5C379DA3\/t51.2885-15\/e35\/s150x150\/39918936_716855338665935_5660831269097832448_n.jpg ",
    "image": "https:\/\/instagram.fhel6-1.fna.fbcdn.net\/vp\/c42dc8a358d68cf3ca7261e1278c7488\/5C174204\/t51.2885-15\/sh0.08\/e35\/s640x640\/39918936_716855338665935_5660831269097832448_n.jpg",
    "text": "Great beautiful room made in unique style \nwith light colors. This livingroom is very light due to the large windows. It is very spacious, but at the same time the room is cozy thanks to this furniture, as well as quite unusual and unique, thanks to the special design solutions and interior elements.",
    "created": "1535788202",
    "deleted": false,
    "commented": "0",
    "parse_tags": [
        "interiordesign"
    ],
    "current_tags": null,
    "current_title": "Cozy livingroom in light colors.",
    "freeze_current_title": "0",
    "inout": 1,
    "status": 30,
    "status_change": "0",
    "image_ok": "1"
}